district,name
1,Boundary-Bonner
2,North-East Kootenai
3,Southwestern Kootenai
4,Coeur d'Alene
5,Benewah-Latah
6,Nez Perce-Lewis
7,Shoshone-Clearwater-Idaho
8,Lemhi-Custer-Valley-Boise-Gem
9,Adams-Washington-Payette
10,Caldwell
11,Greater Canyon County
12,North Nampa
13,South Nampa
14,Eagle
15,West Boise
16,Garden City
17,Boise Bench
18,South Boise-South Ada
19,Boise Foothills
20,Meridian
21,Southwest Ada
22,Kuna
23,Elmore-Owhyhee
24,Twin Falls (city)
25,Twin Falls county
26,Blaine-Camas-Lincoln-Gooding
27,Minidoka-Cassia
28,Power-Bannock
29,Pocatello
30,Western Bonneville
31,Bingham
32,Oneida-Franklin-Bear Lake-Caribou-Teton-Eastern Bonneville
33,Idaho Falls
34,Madison-Northern Bonneville
35,Butte-Clark-Fremont-Jefferson