"name","all","one_race","white","black","native_am","asian","pacific_is","other","mixed_poc","black_id","asian_id","pacific_id","native_id"
"Ada County",494967,453110,410263,8058,3274,13929,1318,16268,41857,20357,85279,2914,187117
"Adams County",4379,4159,4060,3,38,11,0,47,220,8,25,2,190
"Bannock County",87018,81011,72902,748,3104,1197,268,2792,6007,2272,3446,578,9109
"Bear Lake County",6372,6137,6036,10,32,13,2,44,235,13,56,6,157
"Benewah County",9530,8850,7853,8,828,35,15,111,680,14,62,33,1125
"Bingham County",47992,44507,36630,126,3340,200,39,4172,3485,196,755,135,10113
"Blaine County",24272,22051,18677,50,144,212,16,2952,2221,84,378,59,2912
"Boise County",7610,7125,6844,26,66,37,7,145,485,36,92,26,306
"Bonner County",47110,44232,42939,118,346,255,42,532,2878,394,720,146,1741
"Bonneville County",123964,115090,103736,626,1261,1423,154,7890,8874,2811,2451,450,16332
"Boundary County",12056,11294,10715,27,169,75,9,299,762,147,211,38,483
"Butte County",2574,2431,2372,2,18,3,3,33,143,9,11,8,82
"Camas County",1077,978,948,2,1,9,0,18,99,15,25,11,49
"Canyon County",231105,202877,169392,1629,2670,2119,699,26368,28228,11188,14760,1437,161650
"Caribou County",7027,6737,6504,1,50,13,15,154,290,22,61,44,114
"Cassia County",24655,22548,17797,68,256,134,30,4263,2107,94,356,90,2356
"Clark County",790,686,498,10,2,1,0,175,104,15,7,8,27
"Clearwater County",8734,8321,7964,40,149,48,2,118,413,41,81,23,356
"Custer County",4275,4059,3942,5,35,17,2,58,216,27,44,12,173
"Elmore County",28666,25651,21488,757,358,800,109,2139,3015,1532,1814,235,2802
"Franklin County",14194,13527,12908,26,103,30,7,453,667,89,94,42,357
"Fremont County",13388,12729,11563,21,94,46,25,980,659,22,112,45,353
"Gem County",19123,17691,16623,30,155,99,27,757,1432,96,402,80,1369
"Gooding County",15598,13768,11227,29,165,44,7,2296,1830,89,112,44,1472
"Idaho County",16541,15637,14819,58,441,61,5,253,904,113,184,48,954
"Jefferson County",30891,29272,27092,86,204,124,34,1732,1619,138,369,109,1559
"Jerome County",24237,20942,16412,48,440,97,22,3923,3295,51,196,62,2337
"Kootenai County",171362,158839,152438,522,1925,1420,216,2318,12523,3266,10488,742,15582
"Latah County",39517,36637,34294,332,315,981,60,655,2880,837,1838,162,2025
"Lemhi County",7974,7598,7386,19,56,37,6,94,376,29,52,14,241
"Lewis County",3533,3328,3085,6,184,10,1,42,205,7,28,16,299
"Lincoln County",5127,4498,3594,6,77,10,4,807,629,9,45,26,194
"Madison County",52913,49976,45273,736,244,959,231,2533,2937,791,3173,438,2579
"Minidoka County",21613,19113,14591,39,282,63,20,4118,2500,156,203,47,944
"Nez Perce County",42090,39520,36104,193,2445,334,33,411,2570,913,733,140,4103
"Oneida County",4564,4401,4313,3,17,16,4,48,163,9,43,11,84
"Owyhee County",11913,10641,8686,30,421,45,10,1449,1272,76,114,40,1105
"Payette County",25386,22758,20431,66,330,226,35,1670,2628,82,478,71,1933
"Power County",7878,7169,5183,20,222,18,11,1715,709,33,44,34,720
"Shoshone County",13169,12376,11982,21,164,57,6,146,793,31,106,23,602
"Teton County",11630,10761,9413,25,77,54,0,1192,869,31,143,16,415
"Twin Falls County",90046,82210,72215,1057,934,1431,217,6356,7836,1375,2637,369,10309
"Valley County",11746,11064,10597,17,73,61,8,308,682,26,129,34,327
"Washington County",10500,9592,8571,22,112,82,7,798,908,46,173,37,634
