"district","description","total_pop","ld_gap","prison_pop","ld_prison_gap","pct_gap"
3,"Southwestern Kootenai",60775,15.6627652488343,0,15.6532495955847,0.00951565324959525
29,"Pocatello",45292,-13.8034066038634,334,-14.5037586830336,-0.700352079170235
8,"Lemhi-Custer-Valley-Boise-Gem",50728,-3.45798839090304,99,-3.7434579883909,-0.285469597487868
5,"Benewah-Latah",49047,-6.65715101341707,19,-6.69331049576553,-0.0361594823484621
30,"Western Bonneville",60471,15.0842135312589,514,14.0774574174517,1.00675611380721
24,"Twin Falls (city)",54914,4.50851650965839,288,3.91854600818346,0.589970501474927
9,"Adams-Washington-Payette",48800,-7.12722428394709,84,-7.2870872585403,-0.159862974593207
33,"Idaho Falls",48746,-7.22999333904273,0,-7.247121514892,-0.0171281758492725
4,"Coeur d'Alene",57060,8.59263488438481,274,8.02930821200875,0.563326672376059
25,"Twin Falls county",53096,1.04862498810543,99,0.860215053763441,0.188409934341993
28,"Power-Bannock",49604,-5.59710724141212,233,-6.04053668284328,-0.443429441431154
1,"Boundary-Bonner",53378,1.58530783138262,99,1.36073841469217,0.224569416690456
35,"Butte-Clark-Fremont-Jefferson",47643,-9.32914644590351,387,-10.2559710724141,-0.92682462651061
23,"Elmore-Owhyhee",46852,-10.8345227899895,134,-11.1846988295746,-0.350176039585117
2,"North-East Kootenai",53527,1.86887429822057,13,1.84413359977162,0.0247406984489487
32,"Oneida-Franklin-Bear Lake-Caribou-Teton-Eastern Bonneville",49409,-5.96821771814635,47,-6.06527738129223,-0.0970596631458749
27,"Minidoka-Cassia",46268,-11.9459510895423,128,-12.2009705966315,-0.255019507089161
34,"Madison-Northern Bonneville",62038,18.0664192596822,76,17.9217813302883,0.144637929393852
6,"Nez Perce-Lewis",45623,-13.1734703587401,91,-13.5407745741745,-0.367304215434389
31,"Bingham",47992,-8.66495384908174,138,-8.92758587877058,-0.262632029688836
26,"Blaine-Camas-Lincoln-Gooding",46074,-12.3151584356266,74,-12.4559901037206,-0.140831668094016
7,"Shoshone-Clearwater-Idaho",44232,-15.8207250927776,1013,-17.7485964411457,-1.92787134836806
18,"South Boise-South Ada",53391,1.61004852983157,0,1.61004852983157,0
10,"Caldwell",55011,4.69312018270054,316,4.05937767627748,0.633742506423066
22,"Kuna",58770,11.8469882957465,5362,1.6424017508802,10.2045865448663
15,"West Boise",45855,-12.7319440479589,0,-12.7319440479589,0
16,"Garden City",47821,-8.99038919021791,0,-8.99038919021791,0
19,"Boise Foothills",50895,-3.14016557236654,144,-3.4142163859549,-0.274050813588353
12,"North Nampa",57493,9.41669045579979,114,9.09696450661338,0.319725949186411
13,"South Nampa",55056,4.7787610619469,0,4.70073270530022,0.0780283566466844
11,"Greater Canyon County",55010,4.69121705205062,0,4.69121705205062,0
17,"Boise Bench",49421,-5.94538015034732,851,-7.58207250927776,-1.63669235893044
20,"Meridian",56265,7.07964601769912,0,7.06061471119992,0.0190313064991914
14,"Eagle",71366,35.8188219621277,0,35.8188219621277,0
21,"Southwest Ada",61183,16.4392425540013,0,16.4392425540013,0
