name,county,vtd,precinct,precinct_sh,id_votdist,pct_sh,both
ada,1,11401,1401,1401,1,1,2
ada,1,11402,1402,1402,1,1,2
ada,1,11403,1403,1403,1,1,2
ada,1,11404,1404,1404,1,1,2
ada,1,11405,1405,1405,1,1,2
ada,1,11406,1406,1406,1,1,2
ada,1,11407,1407,1407,1,1,2
ada,1,11408,1408,1408,1,1,2
ada,1,11409,1409,1409,1,1,2
ada,1,11410,1410,1410,1,1,2
ada,1,11411,1411,1411,1,1,2
ada,1,11412,1412,1412,1,1,2
ada,1,11413,1413,1413,1,1,2
ada,1,11414,1414,1414,1,1,2
ada,1,11415,1415,1415,1,1,2
ada,1,11416,1416,1416,1,1,2
ada,1,11417,1417,1417,1,1,2
ada,1,11418,1418,1418,1,1,2
ada,1,11419,1419,1419,1,1,2
ada,1,11420,NA,1420,NA,1,1
ada,1,11421,NA,1421,NA,1,1
ada,1,11501,1501,1501,1,1,2
ada,1,11502,1502,1502,1,1,2
ada,1,11503,1503,1503,1,1,2
ada,1,11504,1504,1504,1,1,2
ada,1,11505,1505,1505,1,1,2
ada,1,11506,1506,1506,1,1,2
ada,1,11507,1507,1507,1,1,2
ada,1,11508,1508,1508,1,1,2
ada,1,11509,1509,1509,1,1,2
ada,1,11510,1510,1510,1,1,2
ada,1,11511,1511,1511,1,1,2
ada,1,11512,1512,1512,1,1,2
ada,1,11513,1513,1513,1,1,2
ada,1,11514,1514,1514,1,1,2
ada,1,11515,1515,1515,1,1,2
ada,1,11516,NA,1516,NA,1,1
ada,1,11601,1601,1601,1,1,2
ada,1,11602,1602,1602,1,1,2
ada,1,11603,1603,1603,1,1,2
ada,1,11604,1604,1604,1,1,2
ada,1,11605,1605,1605,1,1,2
ada,1,11606,1606,1606,1,1,2
ada,1,11607,1607,1607,1,1,2
ada,1,11608,1608,1608,1,1,2
ada,1,11609,1609,1609,1,1,2
ada,1,11610,1610,1610,1,1,2
ada,1,11611,1611,1611,1,1,2
ada,1,11612,1612,1612,1,1,2
ada,1,11613,1613,1613,1,1,2
ada,1,11614,1614,1614,1,1,2
ada,1,11615,1615,1615,1,1,2
ada,1,11701,1701,1701,1,1,2
ada,1,11702,1702,1702,1,1,2
ada,1,11703,1703,1703,1,1,2
ada,1,11704,1704,1704,1,1,2
ada,1,11705,1705,1705,1,1,2
ada,1,11706,1706,1706,1,1,2
ada,1,11707,1707,1707,1,1,2
ada,1,11708,1708,1708,1,1,2
ada,1,11709,1709,1709,1,1,2
ada,1,11710,1710,1710,1,1,2
ada,1,11711,1711,1711,1,1,2
ada,1,11712,1712,1712,1,1,2
ada,1,11713,1713,1713,1,1,2
ada,1,11714,1714,1714,1,1,2
ada,1,11715,1715,1715,1,1,2
ada,1,11801,1801,1801,1,1,2
ada,1,11802,1802,1802,1,1,2
ada,1,11803,1803,1803,1,1,2
ada,1,11804,1804,1804,1,1,2
ada,1,11805,1805,1805,1,1,2
ada,1,11806,1806,1806,1,1,2
ada,1,11807,1807,1807,1,1,2
ada,1,11808,1808,1808,1,1,2
ada,1,11809,1809,1809,1,1,2
ada,1,11810,1810,1810,1,1,2
ada,1,11811,1811,1811,1,1,2
ada,1,11812,1812,1812,1,1,2
ada,1,11813,1813,1813,1,1,2
ada,1,11814,1814,1814,1,1,2
ada,1,11815,1815,1815,1,1,2
ada,1,11816,1816,1816,1,1,2
ada,1,11817,1817,1817,1,1,2
ada,1,11818,1818,NA,1,NA,1
ada,1,11901,1901,1901,1,1,2
ada,1,11902,1902,1902,1,1,2
ada,1,11903,1903,1903,1,1,2
ada,1,11904,1904,1904,1,1,2
ada,1,11905,1905,1905,1,1,2
ada,1,11906,1906,1906,1,1,2
ada,1,11907,1907,1907,1,1,2
ada,1,11908,1908,1908,1,1,2
ada,1,11909,1909,1909,1,1,2
ada,1,11910,1910,1910,1,1,2
ada,1,11911,1911,1911,1,1,2
ada,1,11912,1912,1912,1,1,2
ada,1,11913,1913,1913,1,1,2
ada,1,11914,1914,1914,1,1,2
ada,1,11915,1915,1915,1,1,2
ada,1,11916,1916,1916,1,1,2
ada,1,11917,1917,1917,1,1,2
ada,1,11918,1918,1918,1,1,2
ada,1,11919,1919,1919,1,1,2
ada,1,11920,1920,1920,1,1,2
ada,1,12001,2001,2001,1,1,2
ada,1,12002,2002,2002,1,1,2
ada,1,12003,2003,2003,1,1,2
ada,1,12004,2004,2004,1,1,2
ada,1,12005,2005,2005,1,1,2
ada,1,12006,2006,2006,1,1,2
ada,1,12007,2007,2007,1,1,2
ada,1,12008,2008,2008,1,1,2
ada,1,12009,2009,2009,1,1,2
ada,1,12010,2010,2010,1,1,2
ada,1,12011,2011,2011,1,1,2
ada,1,12012,2012,2012,1,1,2
ada,1,12013,2013,2013,1,1,2
ada,1,12014,NA,2014,NA,1,1
ada,1,12015,NA,2015,NA,1,1
ada,1,12101,2101,2101,1,1,2
ada,1,12102,2102,2102,1,1,2
ada,1,12103,2103,2103,1,1,2
ada,1,12104,2104,2104,1,1,2
ada,1,12105,2105,2105,1,1,2
ada,1,12106,2106,2106,1,1,2
ada,1,12107,2107,2107,1,1,2
ada,1,12108,2108,2108,1,1,2
ada,1,12109,2109,2109,1,1,2
ada,1,12110,2110,2110,1,1,2
ada,1,12111,2111,2111,1,1,2
ada,1,12112,2112,2112,1,1,2
ada,1,12113,2113,2113,1,1,2
ada,1,12114,2114,2114,1,1,2
ada,1,12115,2115,2115,1,1,2
ada,1,12116,2116,2116,1,1,2
ada,1,12117,NA,2117,NA,1,1
ada,1,12201,2201,2201,1,1,2
ada,1,12202,2202,2202,1,1,2
ada,1,12203,2203,2203,1,1,2
ada,1,12204,2204,2204,1,1,2
ada,1,12205,2205,2205,1,1,2
ada,1,12206,2206,2206,1,1,2
ada,1,12207,2207,2207,1,1,2
ada,1,12208,2208,2208,1,1,2
ada,1,12209,2209,2209,1,1,2
ada,1,12210,2210,2210,1,1,2
ada,1,12211,2211,2211,1,1,2
ada,1,12212,2212,2212,1,1,2
ada,1,12213,2213,2213,1,1,2
ada,1,12214,2214,2214,1,1,2
adams,3,39001,3001,001 Indian Valley,1,1,2
adams,3,39002,3002,002 Council,1,1,2
adams,3,39003,3003,003 North Council,1,1,2
adams,3,39004,3004,004 Bear,1,1,2
adams,3,39005,3005,005 New Meadows,1,1,2
adams,3,39006,3006,006 Little Salmon River,1,1,2
bannock,5,52834,POCATELLO,Pocatello 34,1,1,2
bannock,5,52835,POCATELLO,Pocatello 35,1,1,2
bannock,5,52836,POCATELLO,Pocatello 36,1,1,2
bannock,5,52837,POCATELLO,Pocatello 37,1,1,2
bannock,5,52838,POCATELLO,Pocatello 38,1,1,2
bannock,5,52839,POCATELLO,Pocatello 39,1,1,2
bannock,5,52840,POCATELLO,Pocatello 40,1,1,2
bannock,5,52841,POCATELLO,NA,1,NA,1
bannock,5,52842,POCATELLO,Pocatello 42,1,1,2
bannock,5,52843,POCATELLO,Pocatello 43,1,1,2
bannock,5,52850,CHUBBUCK,Chubbuck 50,1,1,2
bannock,5,52851,CHUBBUCK,Chubbuck 51,1,1,2
bannock,5,52852,CHUBBUCK,Chubbuck 52,1,1,2
bannock,5,52853,CHUBBUCK,Chubbuck 53,1,1,2
bannock,5,52854,CHUBBUCK,Chubbuck 54,1,1,2
bannock,5,52855,CHUBBUCK,Chubbuck 55,1,1,2
bannock,5,52856,CHUBBUCK,Chubbuck 56,1,1,2
bannock,5,52857,CHUBBUCK,Chubbuck 57,1,1,2
bannock,5,52858,CHUBBUCK,Chubbuck 58,1,1,2
bannock,5,52859,CHUBBUCK,Chubbuck 59,1,1,2
bannock,5,52860,CHUBBUCK,Fort Hall 60,1,1,2
bannock,5,52861,ARIMO,Arimo 61,1,1,2
bannock,5,52862,DOWNEY,Downey 62,1,1,2
bannock,5,52863,INKOM,Inkom 63,1,1,2
bannock,5,52864,LAVA HOT SPRINGS,Lave Hot Springs 64,1,1,2
bannock,5,52865,McCAMMON,McCammon 65,1,1,2
bannock,5,52867,PEBBLE CREEK,Pebble Creek 67,1,1,2
bannock,5,52868,SWAN LAKE,Swan Lake 68,1,1,2
bannock,5,52901,POCATELLO,Pocatello 1,1,1,2
bannock,5,52902,POCATELLO,Pocatello 2,1,1,2
bannock,5,52903,POCATELLO,Pocatello 3,1,1,2
bannock,5,52904,POCATELLO,Pocatello 4,1,1,2
bannock,5,52905,POCATELLO,Pocatello 5,1,1,2
bannock,5,52906,POCATELLO,Pocatello 6,1,1,2
bannock,5,52907,POCATELLO,NA,1,NA,1
bannock,5,52908,POCATELLO,NA,1,NA,1
bannock,5,52909,POCATELLO,Pocatello 9,1,1,2
bannock,5,52910,POCATELLO,Pocatello 10,1,1,2
bannock,5,52911,POCATELLO,Pocatello 11,1,1,2
bannock,5,52912,POCATELLO,Pocatello 12,1,1,2
bannock,5,52913,POCATELLO,Pocatello 13,1,1,2
bannock,5,52914,POCATELLO,Pocatello 14,1,1,2
bannock,5,52915,POCATELLO,Pocatello 15,1,1,2
bannock,5,52917,POCATELLO,Pocatello 17,1,1,2
bannock,5,52918,POCATELLO,Pocatello 18,1,1,2
bannock,5,52919,POCATELLO,Pocatello 19,1,1,2
bannock,5,52920,POCATELLO,NA,1,NA,1
bannock,5,52921,POCATELLO,Pocatello 21,1,1,2
bannock,5,52922,POCATELLO,Pocatello 22,1,1,2
bannock,5,52923,POCATELLO,Pocatello 23,1,1,2
bannock,5,52924,POCATELLO,NA,1,NA,1
bannock,5,52925,POCATELLO,Pocatello 25,1,1,2
bannock,5,52926,POCATELLO,Pocatello 26,1,1,2
bannock,5,52927,POCATELLO,Pocatello 27,1,1,2
bannock,5,52928,POCATELLO,Pocatello 28,1,1,2
bannock,5,52931,POCATELLO,NA,1,NA,1
bannock,5,52932,POCATELLO,Pocatello 32,1,1,2
bannock,5,52966,MINK CREEK,Mink Creek 66,1,1,2
bear lake,7,72905,Bennington,Bennington,1,1,2
bear lake,7,72916,Bailey Creek,Bailey Creek,1,1,2
bear lake,7,73201,Montpelier 1,Montpelier 1,1,1,2
bear lake,7,73202,Montpelier 2,Montpelier 2,1,1,2
bear lake,7,73203,Montpelier 3,Montpelier 3,1,1,2
bear lake,7,73206,Bern,Bern,1,1,2
bear lake,7,73207,Bloomington,Bloomington,1,1,2
bear lake,7,73208,Dingle,Dingle,1,1,2
bear lake,7,73209,Fish Haven,Fish Haven,1,1,2
bear lake,7,73210,Geneva,Geneva/Pegram,1,1,2
bear lake,7,73211,Georgetown,Georgetown,1,1,2
bear lake,7,73212,Liberty,Liberty,1,1,2
bear lake,7,73213,Paris,Paris,1,1,2
bear lake,7,73215,St Charles,St Charles,1,1,2
bear lake,7,73217,NA,Ovid/Lanark,NA,1,1
benewah,9,95001,Benewah,Benewah,1,1,2
benewah,9,95002,Center,Center,1,1,2
benewah,9,95003,College,College,1,1,2
benewah,9,95004,Emida,Emida,1,1,2
benewah,9,95005,Fernwood,Fernwood,1,1,2
benewah,9,95006,Plummer,Plummer,1,1,2
benewah,9,95007,Santa,Santa,1,1,2
benewah,9,95008,St Joe,St Joe,1,1,2
benewah,9,95009,St Maries,St Maries,1,1,2
benewah,9,95010,Tensed,Tensed,1,1,2
benewah,9,95011,Townsite,Townsite,1,1,2
bingham,11,113101,Blackfoot 1,Blackfoot 1,1,1,2
bingham,11,113102,Blackfoot 2,Blackfoot 2,1,1,2
bingham,11,113103,Blackfoot 3,Blackfoot 3,1,1,2
bingham,11,113104,Blackfoot 4,Blackfoot 4,1,1,2
bingham,11,113105,Blackfoot 5,Blackfoot 5,1,1,2
bingham,11,113106,Blackfoot 6,Blackfoot 6,1,1,2
bingham,11,113107,Firth 7,Firth 7,1,1,2
bingham,11,113108,Firth 8,Firth 8,1,1,2
bingham,11,113109,Groveland 9,Groveland 9,1,1,2
bingham,11,113110,Jameston 10,Jameston 10,1,1,2
bingham,11,113111,Moreland 11,Moreland 11,1,1,2
bingham,11,113112,Rockford 12,Rockford 12,1,1,2
bingham,11,113113,Shelley 13,Shelley 13,1,1,2
bingham,11,113114,Shelley 14,Shelley 14,1,1,2
bingham,11,113115,Aberdeen 15,Aberdeen 15,1,1,2
bingham,11,113116,Springfield-Sterling 16,Springfield-Sterling 16,1,1,2
bingham,11,113117,Riverside 17,Riverside 17,1,1,2
bingham,11,113118,Pingree 18,Pingree 18,1,1,2
bingham,11,113119,Wapello 19,Wapello 19,1,1,2
bingham,11,113120,Fort Hall 20,Fort Hall 20,1,1,2
bingham,11,113121,Shelley West 21,Shelley West 21,1,1,2
bingham,11,113122,Groveland 22,Groveland 22,1,1,2
bingham,11,113123,Blackfoot 23,Blackfoot 23,1,1,2
bingham,11,113124,Riverside 24,Riverside 24,1,1,2
bingham,11,113125,Moreland 25,Moreland 25,1,1,2
bingham,11,113126,Atomic City 26,Atomic City 26,1,1,2
bingham,11,113127,Bonneville 27,Bonneville 27,1,1,2
bingham,11,113128,Morgan's Pasture 28,Morgan's Pasture 28,1,1,2
blaine,13,132601,16 Yale,16 Yale,1,1,2
blaine,13,132602,15 Gannett/Picabo,15 Gannett/Picabo,1,1,2
blaine,13,132603,14 Carey,14 Carey,1,1,2
blaine,13,132604,5 Quigley,5 Quigley,1,1,2
blaine,13,132605,12 Poverty Flat,12 Poverty Flat,1,1,2
blaine,13,132606,6 Deer Creek,6 Deer Creek,1,1,2
blaine,13,132607,10 NW Woodside,10 NW Woodside,1,1,2
blaine,13,132608,7 NW Hailey,7 NW Hailey,1,1,2
blaine,13,132609,9 SW Hailey,9 SW Hailey,1,1,2
blaine,13,132610,8 NE Hailey,8 NE Hailey,1,1,2
blaine,13,132611,11 SE Woodside,11 SE Woodside,1,1,2
blaine,13,132612,13 Bellevue,13 Bellevue,1,1,2
blaine,13,132613,1 North Blaine County,1 North Blaine County,1,1,2
blaine,13,132614,4 South Ketchum,4 South Ketchum,1,1,2
blaine,13,132615,2 Sun Valley,2 Sun Valley,1,1,2
blaine,13,132616,3 North Ketchum,3 North Ketchum,1,1,2
boise,15,158030,Garden Valley,Garden Valley,1,1,2
boise,15,158040,Horseshoe Bend,Horseshoe Bend,1,1,2
boise,15,158050,Idaho City,Idaho City,1,1,2
boise,15,158060,Lowman,Lowman,1,1,2
boise,15,158070,Mores Creek,Mores Creek,1,1,2
boise,15,158080,Placerville,Placerville,1,1,2
bonner,17,171001,AIRPORT,AIRPORT,1,1,2
bonner,17,171002,ALGOMA,ALGOMA,1,1,2
bonner,17,171003,BALDY,BALDY,1,1,2
bonner,17,171004,BLUE LAKE,BEACH,1,1,2
bonner,17,171006,CLARK FORK,CAREYWOOD,1,1,2
bonner,17,171007,COCOLALLA,CLARK FORK,1,1,2
bonner,17,171008,COLBURN,COCOLALLA,1,1,2
bonner,17,171009,DOVER,COLBURN,1,1,2
bonner,17,171010,E PRIEST RIVER,DOVER,1,1,2
bonner,17,171011,EDGEMERE,E PRIEST RIVER,1,1,2
bonner,17,171013,GROUSE CREEK,GAMLIN LAKE,1,1,2
bonner,17,171014,HOPE,GROUSE CREEK,1,1,2
bonner,17,171015,HUMBIRD,HOPE,1,1,2
bonner,17,171016,KELSO,HUMBIRD,1,1,2
bonner,17,171017,KOOTENAI,KELSO,1,1,2
bonner,17,171018,LACLEDE,KOOTENAI,1,1,2
bonner,17,171020,LAMB CREEK,LAKEVIEW,1,1,2
bonner,17,171021,ODEN,LAMB CREEK,1,1,2
bonner,17,171022,OLDTOWN,ODEN,1,1,2
bonner,17,171023,PRIEST LAKE,OLDTOWN,1,1,2
bonner,17,171024,PRIEST RIVER WEST CITY,PRIEST LAKE,1,1,2
bonner,17,171026,SANDPOINT,SELLE,1,1,2
bonner,17,171028,NA,SPIRIT VALLEY,NA,1,1
bonner,17,171029,SPIRIT VALLEY,WASHINGTON,1,1,2
bonner,17,171030,WASHINGTON,W PRIEST RIVER,1,1,2
bonner,17,171031,WESTMOND,WESTMOND,1,1,2
bonner,17,171032,W PRIEST RIVER BENCH,WRENCO,1,1,2
bonner,17,171033,WRENCO,NA,1,NA,1
bonner,17,17127A,SELLE,NA,1,NA,1
bonner,17,17127B,SELLE,NA,1,NA,1
bonner,17,177005,CAREYWOOD,BLUE LAKE,1,1,2
bonner,17,177012,GAMLIN LAKE,EDGEMERE,1,1,2
bonner,17,177019,LAKEVIEW,LACLEDE,1,1,2
bonner,17,177025,SAGLE,SAGLE,1,1,2
bonner,17,177027,NA,SOUTHSIDE,NA,1,1
bonner,17,177028,SOUTHSIDE,NA,1,NA,1
bonneville,19,193001,1,1,1,1,2
bonneville,19,193013,13,13,1,1,2
bonneville,19,193021,21,21,1,1,2
bonneville,19,193022,22,22,1,1,2
bonneville,19,193025,25,25,1,1,2
bonneville,19,193027,27,27,1,1,2
bonneville,19,193028,28,28,1,1,2
bonneville,19,193037,37,37,1,1,2
bonneville,19,193038,38,38,1,1,2
bonneville,19,193039,39,39,1,1,2
bonneville,19,193040,40,40,1,1,2
bonneville,19,193041,41,41,1,1,2
bonneville,19,193042,42,42,1,1,2
bonneville,19,193045,45,45,1,1,2
bonneville,19,193046,46,46,1,1,2
bonneville,19,193047,47,47,1,1,2
bonneville,19,193048,48,48,1,1,2
bonneville,19,193049,49,49,1,1,2
bonneville,19,193050,50,50,1,1,2
bonneville,19,193051,51,51,1,1,2
bonneville,19,193052,52,52,1,1,2
bonneville,19,193057,57,57,1,1,2
bonneville,19,193255,55,55,1,1,2
bonneville,19,193256,56,56,1,1,2
bonneville,19,193258,58,58,1,1,2
bonneville,19,193259,59,59,1,1,2
bonneville,19,193302,2,2,1,1,2
bonneville,19,193303,3,3,1,1,2
bonneville,19,193304,4,4,1,1,2
bonneville,19,193305,5,5,1,1,2
bonneville,19,193306,6,6,1,1,2
bonneville,19,193307,7,7,1,1,2
bonneville,19,193308,8,8,1,1,2
bonneville,19,193309,9,9,1,1,2
bonneville,19,193310,10,10,1,1,2
bonneville,19,193311,11,11,1,1,2
bonneville,19,193312,12,12,1,1,2
bonneville,19,193314,14,14,1,1,2
bonneville,19,193315,15,15,1,1,2
bonneville,19,193316,16,16,1,1,2
bonneville,19,193317,17,17,1,1,2
bonneville,19,193318,18,18,1,1,2
bonneville,19,193319,19,19,1,1,2
bonneville,19,193320,20,20,1,1,2
bonneville,19,193323,23,23,1,1,2
bonneville,19,193324,24,24,1,1,2
bonneville,19,193326,26,26,1,1,2
bonneville,19,193443,43,43,1,1,2
bonneville,19,193444,44,44,1,1,2
bonneville,19,193453,53,53,1,1,2
bonneville,19,193454,54,54,1,1,2
boundary,21,211001,BF/KOOTENAI,BF/KOOTENAI,1,1,2
boundary,21,211002,BF/KOOTENAI,NA,1,NA,1
boundary,21,211003,COPELAND,COPELAND,1,1,2
boundary,21,211004,MOYIE,MOYIE,1,1,2
boundary,21,211005,NORTH BONNERS FERRY,NORTH BONNERS FERRY,1,1,2
boundary,21,211006,NAPLES,NAPLES,1,1,2
boundary,21,211007,VALLEY VIEW,VALLEY VIEW,1,1,2
butte,23,233501,Arco 1,Arco 1,1,1,2
butte,23,233502,Arco 2,Arco 2,1,1,2
butte,23,233503,Howe,Howe,1,1,2
butte,23,233504,Moore,Moore,1,1,2
camas,25,252601,25001,Precinct 1,1,1,2
camas,25,252602,25002,Precinct 2,1,1,2
canyon,27,271007,7,7,1,1,2
canyon,27,271008,8,8,1,1,2
canyon,27,271009,9,9,1,1,2
canyon,27,271010,10,10,1,1,2
canyon,27,271011,11,11,1,1,2
canyon,27,271012,12,12,1,1,2
canyon,27,271013,13,13,1,1,2
canyon,27,271014,14,14,1,1,2
canyon,27,271015,15,15,1,1,2
canyon,27,271016,16,16,1,1,2
canyon,27,271017,17,17,1,1,2
canyon,27,271018,18,18,1,1,2
canyon,27,271019,19,19,1,1,2
canyon,27,271020,20,20,1,1,2
canyon,27,271126,26,26,1,1,2
canyon,27,271127,27,27,1,1,2
canyon,27,271128,28,28,1,1,2
canyon,27,271129,29,29,1,1,2
canyon,27,271130,30,30,1,1,2
canyon,27,271131,31,31,1,1,2
canyon,27,271132,32,32,1,1,2
canyon,27,271133,33,33,1,1,2
canyon,27,271134,34,34,1,1,2
canyon,27,271135,35,35,1,1,2
canyon,27,271136,36,36,1,1,2
canyon,27,271137,37,37,1,1,2
canyon,27,271138,38,38,1,1,2
canyon,27,271139,39,39,1,1,2
canyon,27,271140,40,40,1,1,2
canyon,27,271141,41,41,1,1,2
canyon,27,271142,42,42,1,1,2
canyon,27,271143,43,43,1,1,2
canyon,27,271144,44,44,1,1,2
canyon,27,271249,49,49,1,1,2
canyon,27,271250,50,50,1,1,2
canyon,27,271251,51,51,1,1,2
canyon,27,271252,52,52,1,1,2
canyon,27,271253,53,53,1,1,2
canyon,27,271254,54,54,1,1,2
canyon,27,271255,55,55,1,1,2
canyon,27,271256,56,56,1,1,2
canyon,27,271257,57,57,1,1,2
canyon,27,271258,58,58,1,1,2
canyon,27,271259,59,59,1,1,2
canyon,27,271260,60,60,1,1,2
canyon,27,271261,61,61,1,1,2
canyon,27,271262,62,62,1,1,2
canyon,27,271369,69,69,1,1,2
canyon,27,271370,70,70,1,1,2
canyon,27,271371,71,71,1,1,2
canyon,27,271372,72,72,1,1,2
canyon,27,271373,73,73,1,1,2
canyon,27,271374,74,74,1,1,2
canyon,27,271375,75,75,1,1,2
canyon,27,271376,76,76,1,1,2
canyon,27,271377,77,77,1,1,2
canyon,27,271378,78,78,1,1,2
canyon,27,271379,79,79,1,1,2
canyon,27,271380,80,80,1,1,2
canyon,27,271381,81,81,1,1,2
canyon,27,271382,82,82,1,1,2
canyon,27,279001,1,1,1,1,2
canyon,27,279002,2,2,1,1,2
canyon,27,279003,3,3,1,1,2
caribou,29,293201,Grace 1,Grace 1,1,1,2
caribou,29,293202,Soda 2,Soda 2,1,1,2
caribou,29,293203,Soda 3,Soda 3,1,1,2
caribou,29,293204,Soda 4,Soda 4,1,1,2
caribou,29,293205,Bancroft,Bancroft,1,1,2
caribou,29,293206,Freedom,Freedom,1,1,2
caribou,29,293207,Soda 1,Soda 1,1,1,2
caribou,29,293208,Grace 2,Grace 2,1,1,2
caribou,29,293209,Wayan,Wayan,1,1,2
cassia,31,312701,BURLEY 1,BURLEY 1,1,1,2
cassia,31,312702,BURLEY 2,BURLEY 2,1,1,2
cassia,31,312703,BURLEY 3,BURLEY 3,1,1,2
cassia,31,312704,BURLEY 4,BURLEY 4,1,1,2
cassia,31,312705,BURLEY 5,BURLEY 5,1,1,2
cassia,31,312706,BURLEY 6,BURLEY 6,1,1,2
cassia,31,312707,ALBION,ALBION,1,1,2
cassia,31,312708,ALMO,ALMO,1,1,2
cassia,31,312709,BRIDGE,BRIDGE,1,1,2
cassia,31,312710,DECLO,DECLO,1,1,2
cassia,31,312711,ELBA,ELBA,1,1,2
cassia,31,312712,GRANDVIEW,GRANDVIEW,1,1,2
cassia,31,312713,HEGLAR-YALE,HEGLAR-YALE,1,1,2
cassia,31,312714,JACKSON,JACKSON,1,1,2
cassia,31,312715,MALTA,MALTA,1,1,2
cassia,31,312716,OAKLEY 1,OAKLEY 1,1,1,2
cassia,31,312717,OAKLEY 2,OAKLEY 2,1,1,2
cassia,31,312718,PARSONS,PARSONS,1,1,2
cassia,31,312719,PELLA,PELLA,1,1,2
cassia,31,312720,SPRINGDALE,SPRINGDALE,1,1,2
cassia,31,312721,STARRHS,STARRAH'S,1,1,2
cassia,31,312722,SUBLETT,SUBLETT,1,1,2
cassia,31,312723,UNITY,UNITY,1,1,2
cassia,31,312724,VIEW,VIEW,1,1,2
cassia,31,312725,BURLEY 7,NA,1,NA,1
clark,33,333501,33001,Precinct 1,1,1,2
clark,33,333502,33002,Precinct 2,1,1,2
clark,33,333503,33003,Precinct 3,1,1,2
clearwater,35,357001,1 Orofino,1 Orofino,1,1,2
clearwater,35,357002,2 Orofino,2 Orofino,1,1,2
clearwater,35,357003,3 Orofino,3 Orofino,1,1,2
clearwater,35,357004,4 Orofino,4 Orofino,1,1,2
clearwater,35,357005,5 Orofino,5 Orofino,1,1,2
clearwater,35,357006,6 Fraser,6 Fraser,1,1,2
clearwater,35,357007,7 Greer,7 Greer,1,1,2
clearwater,35,357008,8 Teakean,8 Teakean,1,1,2
clearwater,35,357009,9 Weippe,9 Weippe,1,1,2
clearwater,35,357010,10 Headquarters,10 Headquarters,1,1,2
clearwater,35,357011,11 Ahsahka,11 Ahsahka,1,1,2
clearwater,35,357012,12 Pierce,12 Pierce,1,1,2
clearwater,35,357013,13 Elk River,13 Elk River,1,1,2
clearwater,35,357014,14 Grangemont,14 Grangemont,1,1,2
custer,37,378001,Round Valley 1,Round Valley 1,1,1,2
custer,37,378002,Round Valley 2,Round Valley 2,1,1,2
custer,37,378003,Leslie,Leslie,1,1,2
custer,37,378004,Clayton,Clayton,1,1,2
custer,37,378005,Sunol,Sunol,1,1,2
custer,37,378006,Battleground,Battleground,1,1,2
custer,37,378007,Mackay,Mackay,1,1,2
custer,37,378008,Stanley,Stanley,1,1,2
custer,37,378009,Challis 1,Challis 1,1,1,2
elmore,39,392301,Atlanta,Atlanta,1,1,2
elmore,39,392303,Chattin Flats,Chattin Flats,1,1,2
elmore,39,392304,Glenns Ferry,Glenns Ferry,1,1,2
elmore,39,392305,Hammett,Hammett,1,1,2
elmore,39,392306,King Hill,King Hill,1,1,2
elmore,39,392307,Mayfield,Mayfield,1,1,2
elmore,39,392308,Mountain Home #1,Mountain Home #1,1,1,2
elmore,39,392309,Mountain Home #2,Mountain Home #2,1,1,2
elmore,39,392310,Mountain Home #3,Mountain Home #3,1,1,2
elmore,39,392311,Mountain Home #4,Mountain Home #4,1,1,2
elmore,39,392312,Mountain Home #5,Mountain Home #5,1,1,2
elmore,39,392313,Mountain Home #6,Mountain Home #6,1,1,2
elmore,39,392314,Mountain Home #7,Mountain Home #7,1,1,2
elmore,39,392315,Mountain Home #8,Mountain Home #8,1,1,2
elmore,39,392316,Mountain Home #9,Mountain Home #9,1,1,2
elmore,39,392317,Pine,Pine,1,1,2
elmore,39,392318,Prairie,Prairie,1,1,2
franklin,41,413201,Preston 1,Preston 1,1,1,2
franklin,41,413202,Preston 2,Preston 2,1,1,2
franklin,41,413203,Preston 3,Preston 3,1,1,2
franklin,41,413204,Preston 4,Preston 4,1,1,2
franklin,41,413205,Preston 5,Preston 5,1,1,2
franklin,41,413206,Banida-Winder 6,Banida 6,1,1,2
franklin,41,413207,Clifton-Oxford 7,Clifton 7,1,1,2
franklin,41,413208,Dayton 8,Dayton 8,1,1,2
franklin,41,413209,Fairview 9,Fairview 9,1,1,2
franklin,41,413210,Franklin 10,Franklin 10,1,1,2
franklin,41,413211,Mapleton 11,Mapleton 11,1,1,2
franklin,41,413212,Mink Creek 12,Mink Creek 12,1,1,2
franklin,41,413213,Thatcher-Cleveland 13,Cleveland 13,1,1,2
franklin,41,413214,Treas-Riverdale 14,Treasureton 14,1,1,2
franklin,41,413215,Weston 15,Weston 15,1,1,2
franklin,41,413216,Whitney 16,Whitney 16,1,1,2
franklin,41,413217,Worm Creek 17,Worm Creek 17,1,1,2
franklin,41,413218,NA,Mound Valley 18,NA,1,1
fremont,43,433501,1 Ashton 1,1,1,1,2
fremont,43,433502,2 Ashton 2,2,1,1,2
fremont,43,433503,3 Chester/Twin Grov,3,1,1,2
fremont,43,433504,4 Drummond/Squirrel/Lamont,4,1,1,2
fremont,43,433505,5 Egin,5,1,1,2
fremont,43,433506,6 Island Park,6,1,1,2
fremont,43,433507,7 Newdale,7,1,1,2
fremont,43,433508,8 Parker,8,1,1,2
fremont,43,433509,NA,9,NA,1,1
fremont,43,433510,10 St Anthony 1,10,1,1,2
fremont,43,433511,11 St Anthony 2,11,1,1,2
fremont,43,433512,12 St Anthony 3,12,1,1,2
fremont,43,433513,13 Teton,13,1,1,2
fremont,43,433514,14 Warm River/Green,NA,1,NA,1
fremont,43,433515,15 Wilford,NA,1,NA,1
gem,45,458001,CENTRAL EMMETT,CENTRAL EMMETT,1,1,2
gem,45,458002,NORTH EMMETT,NORTH EMMETT,1,1,2
gem,45,458003,BUTTEVIEW,BUTTEVIEW,1,1,2
gem,45,458004,SOUTH EMMETT,SOUTH EMMETT,1,1,2
gem,45,458005,WEST EMMETT,WEST EMMETT,1,1,2
gem,45,458006,EMERSON,EMERSON,1,1,2
gem,45,458007,LINCOLN,LINCOLN,1,1,2
gem,45,458008,LETHA,LETHA,1,1,2
gem,45,458009,HANNA,HANNA,1,1,2
gem,45,458010,BRICK,BRICK,1,1,2
gem,45,458011,BENCH,BENCH,1,1,2
gem,45,458012,SWEET-MONTOUR,SWEET-MONTOUR,1,1,2
gem,45,458013,OLA,OLA,1,1,2
gooding,47,472601,1,NA,1,NA,1
gooding,47,472602,2,2 Gooding City,1,1,2
gooding,47,472603,3,3 Gooding Rural,1,1,2
gooding,47,472604,4,4 Wendell City,1,1,2
gooding,47,472605,5,5 Wendell Rural,1,1,2
gooding,47,472606,6,6 Bliss,1,1,2
gooding,47,472607,7,7 Hagerman,1,1,2
idaho,49,497001,Big Butte,Big Butte,1,1,2
idaho,49,497002,Clearwater,Clearwater,1,1,2
idaho,49,497003,Cottonwood #1,Cottonwood #1,1,1,2
idaho,49,497004,Cottonwood #2,Cottonwood #2,1,1,2
idaho,49,497005,Elk City,Elk City,1,1,2
idaho,49,497006,Fenn,Fenn,1,1,2
idaho,49,497007,Ferdinand,Ferdinand,1,1,2
idaho,49,497008,Greencreek,Greencreek,1,1,2
idaho,49,497009,Glover,Glover,1,1,2
idaho,49,497010,Grangeville # 1,Grangeville #1,1,1,2
idaho,49,497011,Grangeville #2,Grangeville #2,1,1,2
idaho,49,497012,Grangeville #3,Grangeville #3,1,1,2
idaho,49,497013,Grangeville #4,Grangeville #4,1,1,2
idaho,49,497014,Grangeville #5,Grangeville #5,1,1,2
idaho,49,497015,Harpster,Harpster,1,1,2
idaho,49,497016,Joseph,Joseph,1,1,2
idaho,49,497017,Kamiah,Kamiah,1,1,2
idaho,49,497018,Keuterville,Keuterville,1,1,2
idaho,49,497019,Kooskia,Kooskia,1,1,2
idaho,49,497020,Lowell,Lowell,1,1,2
idaho,49,497021,Pollock,Pollock,1,1,2
idaho,49,497022,Riggins,Riggins,1,1,2
idaho,49,497023,Slate Creek I,Slate Creek I,1,1,2
idaho,49,497024,Stites,Stites,1,1,2
idaho,49,497025,White Bird,White Bird,1,1,2
idaho,49,497026,Woodland,Woodland,1,1,2
idaho,49,497027,Slate Creek II,Slate Creek II,1,1,2
jefferson,51,513501,Rigby 1,Rigby 1,1,1,2
jefferson,51,513502,Rigby 2,Rigby 2,1,1,2
jefferson,51,513503,Rigby 3,Rigby 3,1,1,2
jefferson,51,513504,Rigby 4,Rigby 4,1,1,2
jefferson,51,513505,Lewisville,Lewisville,1,1,2
jefferson,51,513506,Clark,Clark,1,1,2
jefferson,51,513507,Ririe,Ririe,1,1,2
jefferson,51,513508,Labelle,Labelle,1,1,2
jefferson,51,513509,Lorenzo,Lorenzo,1,1,2
jefferson,51,513510,Annis,Annis,1,1,2
jefferson,51,513511,Menan,Menan,1,1,2
jefferson,51,513512,Monteview,Monteview,1,1,2
jefferson,51,513513,Hamer,Hamer,1,1,2
jefferson,51,513514,Roberts,Roberts,1,1,2
jefferson,51,513515,Terreton,Terreton,1,1,2
jefferson,51,513516,Grant,Grant,1,1,2
jefferson,51,513517,Garfield,Garfield,1,1,2
jefferson,51,513518,NA,Rigby 5,NA,1,1
jefferson,51,513519,NA,Rigby 6,NA,1,1
jefferson,51,513520,NA,Rigby 7,NA,1,1
jerome,53,532501,HAZELTON,HAZELTON,1,1,2
jerome,53,532502,EDEN,EDEN,1,1,2
jerome,53,532503,FALLS CITY,FALLS CITY,1,1,2
jerome,53,532504,CANYONSIDE,CANYONSIDE,1,1,2
jerome,53,532505,SHEPHERDVIEW,SHEPHERDVIEW,1,1,2
jerome,53,532506,NORTHEAST,NORTHEAST,1,1,2
jerome,53,532507,SOUTHWEST,SOUTHWEST,1,1,2
jerome,53,532508,SOUTHEAST,SOUTHEAST,1,1,2
jerome,53,532509,NORTHWEST,NORTHWEST,1,1,2
jerome,53,532510,BISHOP COURT,BISHOP COURT,1,1,2
jerome,53,532511,NA,RIMROCK,NA,1,1
kootenai,55,552001,1,1,1,1,2
kootenai,55,552002,2,2,1,1,2
kootenai,55,552003,3,3,1,1,2
kootenai,55,552004,4,4,1,1,2
kootenai,55,552005,5,5,1,1,2
kootenai,55,552006,6,6,1,1,2
kootenai,55,552007,7,7,1,1,2
kootenai,55,552012,12,12,1,1,2
kootenai,55,552013,13,13,1,1,2
kootenai,55,552014,14,14,1,1,2
kootenai,55,552015,15,15,1,1,2
kootenai,55,552016,16,16,1,1,2
kootenai,55,552017,17,17,1,1,2
kootenai,55,552018,18,18,1,1,2
kootenai,55,552019,19,19,1,1,2
kootenai,55,552020,20,20,1,1,2
kootenai,55,552021,21,21,1,1,2
kootenai,55,552022,22,22,1,1,2
kootenai,55,552041,41,41,1,1,2
kootenai,55,552061,61,61,1,1,2
kootenai,55,552067,67,67,1,1,2
kootenai,55,552068,68,68,1,1,2
kootenai,55,552070,70,70,1,1,2
kootenai,55,553008,8,8,1,1,2
kootenai,55,553009,9,9,1,1,2
kootenai,55,553010,10,10,1,1,2
kootenai,55,553011,11,11,1,1,2
kootenai,55,553023,23,23,1,1,2
kootenai,55,553024,24,24,1,1,2
kootenai,55,553025,25,25,1,1,2
kootenai,55,553026,26,26,1,1,2
kootenai,55,553027,27,27,1,1,2
kootenai,55,553028,28,28,1,1,2
kootenai,55,553029,29,29,1,1,2
kootenai,55,553030,30,30,1,1,2
kootenai,55,553031,31,31,1,1,2
kootenai,55,553032,32,32,1,1,2
kootenai,55,553033,33,33,1,1,2
kootenai,55,553034,34,34,1,1,2
kootenai,55,553035,35,35,1,1,2
kootenai,55,553036,36,36,1,1,2
kootenai,55,553063,63,63,1,1,2
kootenai,55,553064,64,64,1,1,2
kootenai,55,553065,65,65,1,1,2
kootenai,55,553066,66,66,1,1,2
kootenai,55,553069,69,69,1,1,2
kootenai,55,554037,37,37,1,1,2
kootenai,55,554038,38,38,1,1,2
kootenai,55,554039,39,39,1,1,2
kootenai,55,554040,40,40,1,1,2
kootenai,55,554042,42,42,1,1,2
kootenai,55,554043,43,43,1,1,2
kootenai,55,554044,44,44,1,1,2
kootenai,55,554045,45,45,1,1,2
kootenai,55,554046,46,46,1,1,2
kootenai,55,554047,47,47,1,1,2
kootenai,55,554048,48,48,1,1,2
kootenai,55,554049,49,49,1,1,2
kootenai,55,554050,50,50,1,1,2
kootenai,55,554051,51,51,1,1,2
kootenai,55,554052,52,52,1,1,2
kootenai,55,554053,53,53,1,1,2
kootenai,55,554054,54,54,1,1,2
kootenai,55,554055,55,55,1,1,2
kootenai,55,554056,56,56,1,1,2
kootenai,55,554057,57,57,1,1,2
kootenai,55,554058,58,58,1,1,2
kootenai,55,554059,59,59,1,1,2
kootenai,55,554060,60,60,1,1,2
kootenai,55,554062,62,62,1,1,2
latah,57,575001,1,Moscow 1,1,1,2
latah,57,575002,2,Moscow 2,1,1,2
latah,57,575003,3,Moscow 3,1,1,2
latah,57,575004,4,Moscow 4,1,1,2
latah,57,575005,5,Moscow 5,1,1,2
latah,57,575006,6,Moscow 6,1,1,2
latah,57,575007,7,Moscow 7,1,1,2
latah,57,575008,8,Moscow 8,1,1,2
latah,57,575009,9,Moscow 9,1,1,2
latah,57,575010,10,Moscow 10,1,1,2
latah,57,575011,11,Moscow 11,1,1,2
latah,57,575012,12,Moscow 12,1,1,2
latah,57,575013,13,Moscow 13,1,1,2
latah,57,575014,14,Moscow 14,1,1,2
latah,57,575015,15,Moscow 15,1,1,2
latah,57,575016,16,Moscow 16,1,1,2
latah,57,575017,17,Moscow 17,1,1,2
latah,57,575018,18,Moscow 18,1,1,2
latah,57,575019,19,Deary 19,1,1,2
latah,57,575020,20,Farmington 20,1,1,2
latah,57,575021,21,Genesee 21,1,1,2
latah,57,575022,22,Harvard 22,1,1,2
latah,57,575023,23,Juliaetta 23,1,1,2
latah,57,575024,24,Kendrick 24,1,1,2
latah,57,575025,25,Linden 25,1,1,2
latah,57,575026,26,Palouse 26,1,1,2
latah,57,575027,27,Potlatch 27,1,1,2
latah,57,575028,28,Princeton 28,1,1,2
latah,57,575029,29,Troy 29,1,1,2
latah,57,575030,30,Viola 30,1,1,2
latah,57,575031,31,Cora 31,1,1,2
latah,57,575032,32,Bovill 32,1,1,2
latah,57,575037,NA,Onaway 37,NA,1,1
lemhi,59,598001,Junction,Junction,1,1,2
lemhi,59,598002,North Fork,North Fork,1,1,2
lemhi,59,598003,Mineral Hill,Mineral Hill,1,1,2
lemhi,59,598004,Lemhi,Lemhi,1,1,2
lemhi,59,598005,Brooklyn,Brooklyn,1,1,2
lemhi,59,598006,Salmon,Salmon,1,1,2
lemhi,59,598007,Depot,Depot,1,1,2
lemhi,59,598008,Pahsimeroi,Pahsimeroi,1,1,2
lemhi,59,598009,Iron Creek,Iron Creek,1,1,2
lewis,61,616001,Nezperce,Nezperce,1,1,2
lewis,61,616002,West Kamiah,West Kamiah,1,1,2
lewis,61,616003,East Kamiah,East Kamiah,1,1,2
lewis,61,616004,Craigmont,Craigmont,1,1,2
lewis,61,616005,Winchester,Winchester,1,1,2
lewis,61,616006,Reubens,Reubens,1,1,2
lewis,61,616007,Mohler,Mohler,1,1,2
lewis,61,616008,Slickpoo,Slickpoo,1,1,2
lincoln,63,632601,Shoshone,Shoshone,1,1,2
lincoln,63,632603,North Shoshone,North Shoshone,1,1,2
lincoln,63,632604,Richfield,Richfield,1,1,2
lincoln,63,632605,Dietrich,Dietrich,1,1,2
lincoln,63,632606,Kimama,Kimama,1,1,2
madison,65,653401,Plano 1,Plano,1,1,2
madison,65,653402,Burton 2,Burton,1,1,2
madison,65,653403,Hibbard 3,Hibbard,1,1,2
madison,65,653404,Salem 4,Salem,1,1,2
madison,65,653405,Rexburg 5,Fairgrounds,1,1,2
madison,65,653406,Sugar 6,Sugar City,1,1,2
madison,65,653407,Rexburg 7,Adams,1,1,2
madison,65,653408,Rexburg 8,Pioneer West,1,1,2
madison,65,653409,Rexburg 9,Pioneer East,1,1,2
madison,65,653410,Rexburg 10,Porter Park,1,1,2
madison,65,653411,Rexburg 11,City Center,1,1,2
madison,65,653412,Rexburg 12,4th South,1,1,2
madison,65,653413,Rexburg 13,University,1,1,2
madison,65,653414,Rexburg 14,Rexburg Hill,1,1,2
madison,65,653415,Rexburg 15,Poleline,1,1,2
madison,65,653416,Rexburg 16,Lincoln,1,1,2
madison,65,653417,Moody 17,Moody,1,1,2
madison,65,653418,Union 18,Union/Lyman,1,1,2
madison,65,653419,Archer 19,Archer,1,1,2
madison,65,653420,NA,Trejo,NA,1,1
madison,65,653421,NA,6th South,NA,1,1
minidoka,67,672701,Acequia,1 Acequia,1,1,2
minidoka,67,672702,Emerson,2 Emerson,1,1,2
minidoka,67,672703,Heyburn,3 Heyburn 1,1,1,2
minidoka,67,672704,Heyburn,4 Heyburn 2,1,1,2
minidoka,67,672705,Paul,5 Paul,1,1,2
minidoka,67,672706,Pioneer,6 Pioneer,1,1,2
minidoka,67,672707,NA,7 Rupert 1,NA,1,1
minidoka,67,672708,Rupert,8 Rupert 2,1,1,2
minidoka,67,672709,Rupert,9 Rupert 3,1,1,2
minidoka,67,672710,Rupert,10 Rupert 4,1,1,2
minidoka,67,672711,NA,11 Rupert 5,NA,1,1
minidoka,67,6727A1,Rupert,NA,1,NA,1
minidoka,67,6727B1,Rupert,NA,1,NA,1
nez perce,69,696001,LEWISTON #1,Lewiston 1,1,1,2
nez perce,69,696002,LEWISTON #2,Lewiston 2,1,1,2
nez perce,69,696003,LEWISTON #3,Lewiston 3,1,1,2
nez perce,69,696004,LEWISTON #4,Lewiston 4,1,1,2
nez perce,69,696005,LEWISTON #5,Lewiston 5,1,1,2
nez perce,69,696006,LEWISTON #6,Lewiston 6,1,1,2
nez perce,69,696007,LEWISTON #7,Lewiston 7,1,1,2
nez perce,69,696008,LEWISTON #8,Lewiston 8,1,1,2
nez perce,69,696009,LEWISTON #9,Lewiston 9,1,1,2
nez perce,69,696010,LEWISTON #10,Lewiston 10,1,1,2
nez perce,69,696011,LEWISTON #11,Lewiston 11,1,1,2
nez perce,69,696012,LEWISTON #12,Lewiston 12,1,1,2
nez perce,69,696013,LEWISTON #13,Lewiston 13,1,1,2
nez perce,69,696014,LEWISTON #14,Lewiston 14,1,1,2
nez perce,69,696015,LEWISTON #15,Lewiston 15,1,1,2
nez perce,69,696016,LEWISTON #16,Lewiston 16,1,1,2
nez perce,69,696017,LEWISTON #17,Lewiston 17,1,1,2
nez perce,69,696018,LEWISTON #18,Lewiston 18,1,1,2
nez perce,69,696019,LEWISTON #19,Lewiston 19,1,1,2
nez perce,69,696020,LEWISTON #20,Lewiston 20,1,1,2
nez perce,69,696021,LEWISTON #21,Lewiston 21,1,1,2
nez perce,69,696022,LEWISTON #22,Lewiston 22,1,1,2
nez perce,69,696023,RIMROCK,Rimrock 23,1,1,2
nez perce,69,696024,FOOTHILLS,Foothills 24,1,1,2
nez perce,69,696025,TAMMANY,Tammany 25,1,1,2
nez perce,69,696026,LAPWAI,Lapwai 26,1,1,2
nez perce,69,696027,LELAND,Leland 27,1,1,2
nez perce,69,696028,LENORE,Lenore 28,1,1,2
nez perce,69,696029,PECK,Peck 29,1,1,2
nez perce,69,696030,GIFFORD,Gifford 30,1,1,2
nez perce,69,696031,CULDESAC,Culdesac 31,1,1,2
nez perce,69,696032,WEBB,Webb 32,1,1,2
oneida,71,713201,Malad 1,Malad 1,1,1,2
oneida,71,713202,Malad 2,Malad 2,1,1,2
oneida,71,713203,Malad 3,Malad 3,1,1,2
oneida,71,713204,Malad 4,Malad 4,1,1,2
oneida,71,713205,Curlew,Curlew,1,1,2
oneida,71,713206,Holbrook,Holbrook,1,1,2
owyhee,73,732301,NORTH HOMEDALE,NORTH HOMEDALE,1,1,2
owyhee,73,732302,SOUTH HOMEDALE,SOUTH HOMEDALE,1,1,2
owyhee,73,732303,NORTH MARSING,NORTH MARSING,1,1,2
owyhee,73,732304,SOUTH MARSING,SOUTH MARSING,1,1,2
owyhee,73,732305,PLEASANT VALLEY,PLEASANT VALLEY,1,1,2
owyhee,73,732306,WILSON,WILSON,1,1,2
owyhee,73,732307,MURPHY,MURPHY,1,1,2
owyhee,73,732308,OREANA,OREANA,1,1,2
owyhee,73,732309,GRAND VIEW,GRAND VIEW,1,1,2
owyhee,73,732310,BRUNEAU,BRUNEAU,1,1,2
owyhee,73,732311,RIDDLE,RIDDLE,1,1,2
owyhee,73,732312,THREE CREEK,THREE CREEK,1,1,2
payette,75,759001,75001,75001,1,1,2
payette,75,759002,75002,75002,1,1,2
payette,75,759003,75003,75003,1,1,2
payette,75,759004,75004,75004,1,1,2
payette,75,759005,75005,75005,1,1,2
payette,75,759006,75006,75006,1,1,2
payette,75,759007,75007,75007,1,1,2
payette,75,759008,75008,75008,1,1,2
payette,75,759009,75009,75009,1,1,2
payette,75,759010,75010,75010,1,1,2
power,77,772801,77001,77001,1,1,2
power,77,772802,77002,77002,1,1,2
power,77,772803,77003,77003,1,1,2
power,77,772804,77004,77004,1,1,2
power,77,772805,77005,77005,1,1,2
power,77,772806,77006,77006,1,1,2
shoshone,79,797001,01 - MURRAY,01 - MURRAY,1,1,2
shoshone,79,797002,02 - MULLAN,02 - MULLAN,1,1,2
shoshone,79,797003,03 - WALLACE,03 - WALLACE,1,1,2
shoshone,79,797004,04 - SILVERTON,04 - SILVERTON,1,1,2
shoshone,79,797005,05 - OSBURN,05 - OSBURN,1,1,2
shoshone,79,797006,06 - KELLOGG,06 - KELLOGG,1,1,2
shoshone,79,797007,07 - WARDNER (Mail Out),07 - WARDNER (Mail Out),1,1,2
shoshone,79,797008,08 - SMELTERVILLE,08 - SMELTERVILLE,1,1,2
shoshone,79,797009,09 - PINEHURST,09 - PINEHURST,1,1,2
shoshone,79,797010,10 - KINGSTON,10 - KINGSTON,1,1,2
shoshone,79,797011,11 - CALDER (Mail Out),11 - CALDER (Mail Out),1,1,2
shoshone,79,797012,12 - CLARKIA (Mail Out),12 - CLARKIA (Mail Out),1,1,2
shoshone,79,797013,13 - AVERY (Mail Out),13 - AVERY (Mail Out),1,1,2
teton,81,813201,1,1,1,1,2
teton,81,813202,2,2,1,1,2
teton,81,813203,3,3,1,1,2
teton,81,813204,4,4,1,1,2
teton,81,813205,5,5,1,1,2
teton,81,813206,6,6,1,1,2
teton,81,813207,7,7,1,1,2
twin falls,83,832301,Buhl 01,Buhl 01,1,1,2
twin falls,83,832302,Buhl 02,Buhl 02,1,1,2
twin falls,83,832303,Castleford,Castleford,1,1,2
twin falls,83,832304,Deep Creek,Deep Creek,1,1,2
twin falls,83,832305,Maroa,Maroa,1,1,2
twin falls,83,832401,TF 01,TF 01,1,1,2
twin falls,83,832402,TF 02,TF 02,1,1,2
twin falls,83,832403,TF 03,TF 03,1,1,2
twin falls,83,832404,TF 04,TF 04,1,1,2
twin falls,83,832405,TF 05,TF 05,1,1,2
twin falls,83,832406,TF 06,TF 06,1,1,2
twin falls,83,832407,TF 07,TF 07,1,1,2
twin falls,83,832408,TF 08,TF 08,1,1,2
twin falls,83,832409,TF 09,TF 09,1,1,2
twin falls,83,832410,TF 10,TF 10,1,1,2
twin falls,83,832411,TF 11,TF 11,1,1,2
twin falls,83,832412,TF 12,TF 12,1,1,2
twin falls,83,832413,TF 13,TF 13,1,1,2
twin falls,83,832414,TF 14,TF 14,1,1,2
twin falls,83,832415,TF 15,TF 15,1,1,2
twin falls,83,832416,TF 16,TF 16,1,1,2
twin falls,83,832417,TF 17,TF 17,1,1,2
twin falls,83,832418,TF 18,TF 18,1,1,2
twin falls,83,832419,TF 19,TF 19,1,1,2
twin falls,83,832420,TF 20,TF 20,1,1,2
twin falls,83,832421,TF 21,TF 21,1,1,2
twin falls,83,832422,TF 22,TF 22,1,1,2
twin falls,83,832423,TF 23,TF 23,1,1,2
twin falls,83,832501,Murtaugh,Murtaugh,1,1,2
twin falls,83,832503,Buhl 03,Buhl 03,1,1,2
twin falls,83,832504,Buhl 04,Buhl 04,1,1,2
twin falls,83,832505,Buhl 05,Buhl 05,1,1,2
twin falls,83,832506,Filer 01,Filer 01,1,1,2
twin falls,83,832507,Filer 02,Filer 02,1,1,2
twin falls,83,832508,Filer 03,Filer 03,1,1,2
twin falls,83,832509,Hansen,Hansen,1,1,2
twin falls,83,832510,Hollister,Hollister,1,1,2
twin falls,83,832511,Kimberly 01,Kimberly 01,1,1,2
twin falls,83,832512,Kimberly 02,Kimberly 02,1,1,2
twin falls,83,832513,Kimberly 03,Kimberly 03,1,1,2
twin falls,83,832514,Kimberly 04,Kimberly 04,1,1,2
twin falls,83,832524,TF 24,TF 24,1,1,2
twin falls,83,832525,TF 25,TF 25,1,1,2
twin falls,83,832526,TF 26,TF 26,1,1,2
valley,85,858001,Mc Call,McCall,1,1,2
valley,85,858002,Roseberry,Roseberry,1,1,2
valley,85,858003,West Mountain,West Mountain,1,1,2
valley,85,858004,Payette,Payette,1,1,2
valley,85,858005,Alpha,Alpha,1,1,2
valley,85,858006,Yellow Pine,Yellow Pine,1,1,2
valley,85,858007,Donnelly,Donnelly,1,1,2
valley,85,858008,Cascade,Cascade,1,1,2
washington,87,879001,Eaton 1,Eaton 1,1,1,2
washington,87,879002,West Weiser 2,West Weiser 2,1,1,2
washington,87,879003,South Weiser 3,South Weiser 3,1,1,2
washington,87,879004,Weiser 4,Weiser 4,1,1,2
washington,87,879005,Middle Weiser 5,Middle Weiser 5,1,1,2
washington,87,879006,East Weiser 6,East Weiser 6,1,1,2
washington,87,879007,Midvale 7,Midvale 7,1,1,2
washington,87,879008,Cambridge 8,Cambridge 8,1,1,2
washington,87,879009,Pioneer 9,Pioneer 9,1,1,2
washington,87,879010,Sunnyside 10,Sunnyside 10,1,1,2
washington,87,879011,Mineral 11,Mineral 11,1,1,2
